{
    "ParametersGroup": {
        "@name": "CydreInputs",
        "ParametersGroup": [
            {
                "@name": "Files",
                "Parameter": {
                    "@name": "datasets",
                    "description": "Name of the regional database file encompassing hydrological, climatic, and geological data from various watersheds.",
                    "type": "string",
                    "possible_values": null,
                    "value": null,
                    "default_value": "regional_object"
                }
            },
            {
                "@name": "ForecastInputs",
                "Parameter": [
                    {
                        "@name": "watershed_target_id",
                        "description": "ID of the watershed for which we wish to predict the seasonal streamflow.",
                        "type": "string",
                        "possible_values": null,
                        "value": null,
                        "default_value": "J0144010"
                    },
                    {
                        "@name": "forecast_horizon",
                        "description": "Forecast horizon in days.",
                        "type": "int",
                        "possible_values": null,
                        "value": null,
                        "default_value": "30"
                    }
                ]
            },
            {
                "@name": "Similarity",
                "ParametersGroup": [
                    {
                        "@name": "specific_discharge",
                        "ParametersGroup": [
                            {
                                "@name": "calculation",
                                "Parameter": [
                                    {
                                        "@name": "correlation",
                                        "description": "method for quantifying correlation between two time series",
                                        "type": "string",
                                        "possible_values": "nse, nselog, pearson",
                                        "value": null,
                                        "default_value": "pearson"
                                    },
                                    {
                                        "@name": "scale",
                                        "description": "conversion scale used in similarity calculation",
                                        "type": "string",
                                        "possible_values": "normal, log",
                                        "value": null,
                                        "default_value": "normal"
                                    }
                                ]
                            },
                            {
                                "@name": "selection",
                                "Parameter": {
                                    "@name": "threshold",
                                    "description": "minimum threshold for extracting top scenarios from the correlation matrix",
                                    "type": "double",
                                    "possible_values": null,
                                    "value": null,
                                    "default_value": "O.7"
                                }
                            }
                        ]
                    },
                    {
                        "@name": "recharge",
                        "ParametersGroup": [
                            {
                                "@name": "calculation",
                                "Parameter": [
                                    {
                                        "@name": "correlation",
                                        "description": "method for quantifying correlation between two time series",
                                        "type": "string",
                                        "possible_values": "nse, nselog, pearson",
                                        "value": null,
                                        "default_value": "pearson"
                                    },
                                    {
                                        "@name": "scale",
                                        "description": "conversion scale used in similarity calculation",
                                        "type": "string",
                                        "possible_values": "normal, log",
                                        "value": null,
                                        "default_value": "normal"
                                    }
                                ]
                            },
                            {
                                "@name": "selection",
                                "Parameter": {
                                    "@name": "threshold",
                                    "description": "minimum threshold for extracting top scenarios from the correlation matrix",
                                    "type": "double",
                                    "possible_values": null,
                                    "value": null,
                                    "default_value": "O.7"
                                }
                            }
                        ]
                    },
                    {
                        "@name": "runoff",
                        "ParametersGroup": [
                            {
                                "@name": "calculation",
                                "Parameter": [
                                    {
                                        "@name": "correlation",
                                        "description": "method for quantifying correlation between two time series",
                                        "type": "string",
                                        "possible_values": "nse, nselog, pearson",
                                        "value": null,
                                        "default_value": "pearson"
                                    },
                                    {
                                        "@name": "scale",
                                        "description": "conversion scale used in similarity calculation",
                                        "type": "string",
                                        "possible_values": "normal, log",
                                        "value": null,
                                        "default_value": "normal"
                                    }
                                ]
                            },
                            {
                                "@name": "selection",
                                "Parameter": {
                                    "@name": "threshold",
                                    "description": "minimum threshold for extracting top scenarios from the correlation matrix",
                                    "type": "double",
                                    "possible_values": null,
                                    "value": null,
                                    "default_value": "O.7"
                                }
                            }
                        ]
                    }
                ]
            },
            {
                "@name": "TimeManagement",
                "Parameter": [
                    {
                        "@name": "similarity_period",
                        "description": "Similarity period calculation between two timeseries.",
                        "type": "string",
                        "possible_values": "period; ndays",
                        "value": null,
                        "default_value": "period"
                    },
                    {
                        "@name": "ndays_before_forecast",
                        "description": "Number of days before the forescast day (or current date).",
                        "type": "int",
                        "possible_values": "period; ndays",
                        "value": null,
                        "default_value": "90"
                    },
                    {
                        "@name": "time_step",
                        "description": "Variable time step (can be daily 'D', weekly 'W' or monthly 'M').",
                        "type": "string",
                        "possible_values": "D; W; M",
                        "value": null,
                        "default_value": "D"
                    }
                ]
            }
        ]
    }
}